{
  "$schema": "https://go.kicad.org/pcm/schemas/v1",
  "name": "SparkFun KiCad CAMmer",
  "description": "SparkFun's simple PCB CAMmer (Gerber generator) for KiCad 7 / 8",
  "description_full": "Generates the Gerber and drill files for a KiCad PCB and zips them",
  "identifier": "com.github.sparkfun.SparkFunKiCadCAMmer",
  "type": "plugin",
  "author": {
    "name": "SparkFun",
    "contact": {
      "github": "https://github.com/sparkfun",
      "web": "https://sparkfun.com",
      "twitter": "https://twitter.com/sparkfun"
    }
  },
  "maintainer": {
    "name": "SparkFun",
    "contact": {
      "github": "https://github.com/sparkfun",
      "web": "https://sparkfun.com",
      "twitter": "https://twitter.com/sparkfun"
    }
  },
  "license": "MIT",
  "resources": {
    "homepage": "https://github.com/sparkfun/SparkFun_KiCad_CAMmer"
  },
  "versions": [
    {
      "version": "1.1.2",
      "status": "stable",
      "kicad_version": "7.0",
      "download_url": "https://github.com/sparkfun/SparkFun_KiCad_CAMmer/releases/download/v1.1.2/SparkFunKiCadCAMmer-1.1.2-pcm.zip",
      "download_sha256": "1ec839f7f0a897f3243ca97b63b8a71a56e8222c8cea74b74e7aff7d5e2074ec",
      "download_size": 15623,
      "install_size": 42317
    }
  ]
}
